@xrdef{Introduction-title}{Introduction}
@xrdef{Introduction-snt}{Chapter@tie 1}
@xrdef{Introduction-pg}{1}
@xrdef{Quick start summary-title}{Quick start summary}
@xrdef{Quick start summary-snt}{Chapter@tie 2}
@xrdef{Quick start summary-pg}{2}
@xrdef{Loading ASDF-title}{Loading ASDF}
@xrdef{Loading ASDF-snt}{Chapter@tie 3}
@xrdef{Loading a pre-installed ASDF-title}{Loading a pre-installed ASDF}
@xrdef{Loading a pre-installed ASDF-snt}{Section@tie 3.1}
@xrdef{Checking whether ASDF is loaded-title}{Checking whether ASDF is loaded}
@xrdef{Checking whether ASDF is loaded-snt}{Section@tie 3.2}
@xrdef{Upgrading ASDF-title}{Upgrading ASDF}
@xrdef{Upgrading ASDF-snt}{Section@tie 3.3}
@xrdef{Loading ASDF-pg}{3}
@xrdef{Loading a pre-installed ASDF-pg}{3}
@xrdef{Checking whether ASDF is loaded-pg}{3}
@xrdef{Replacing your implementation's ASDF-title}{Replacing your implementation's ASDF}
@xrdef{Replacing your implementation's ASDF-snt}{Section@tie 3.4}
@xrdef{Loading ASDF from source-title}{Loading ASDF from source}
@xrdef{Loading ASDF from source-snt}{Section@tie 3.5}
@xrdef{Upgrading ASDF-pg}{4}
@xrdef{Replacing your implementation's ASDF-pg}{4}
@xrdef{Loading ASDF from source-pg}{4}
@xrdef{Configuring ASDF-title}{Configuring ASDF}
@xrdef{Configuring ASDF-snt}{Chapter@tie 4}
@xrdef{Configuring ASDF to find your systems-title}{Configuring ASDF to find your systems}
@xrdef{Configuring ASDF to find your systems-snt}{Section@tie 4.1}
@xrdef{Configuring ASDF-pg}{6}
@xrdef{Configuring ASDF to find your systems-pg}{6}
@xrdef{Configuring ASDF to find your systems --- old style-title}{Configuring ASDF to find your systems --- old style}
@xrdef{Configuring ASDF to find your systems --- old style-snt}{Section@tie 4.2}
@xrdef{Configuring ASDF to find your systems --- old style-pg}{7}
@xrdef{Configuring where ASDF stores object files-title}{Configuring where ASDF stores object files}
@xrdef{Configuring where ASDF stores object files-snt}{Section@tie 4.3}
@xrdef{Configuring where ASDF stores object files-pg}{8}
@xrdef{Resetting the ASDF configuration-title}{Resetting the ASDF configuration}
@xrdef{Resetting the ASDF configuration-snt}{Section@tie 4.4}
@xrdef{Resetting the ASDF configuration-pg}{9}
@xrdef{Using ASDF-title}{Using ASDF}
@xrdef{Using ASDF-snt}{Chapter@tie 5}
@xrdef{Loading a system-title}{Loading a system}
@xrdef{Loading a system-snt}{Section@tie 5.1}
@xrdef{Convenience Functions-title}{Convenience Functions}
@xrdef{Convenience Functions-snt}{Section@tie 5.2}
@xrdef{Using ASDF-pg}{10}
@xrdef{Loading a system-pg}{10}
@xrdef{Convenience Functions-pg}{10}
@xrdef{Moving on-title}{Moving on}
@xrdef{Moving on-snt}{Section@tie 5.3}
@xrdef{Moving on-pg}{12}
@xrdef{Defining systems with defsystem-title}{Defining systems with defsystem}
@xrdef{Defining systems with defsystem-snt}{Chapter@tie 6}
@xrdef{The defsystem form-title}{The defsystem form}
@xrdef{The defsystem form-snt}{Section@tie 6.1}
@xrdef{Defining systems with defsystem-pg}{13}
@xrdef{The defsystem form-pg}{13}
@xrdef{A more involved example-title}{A more involved example}
@xrdef{A more involved example-snt}{Section@tie 6.2}
@xrdef{A more involved example-pg}{14}
@xrdef{The defsystem grammar-title}{The defsystem grammar}
@xrdef{The defsystem grammar-snt}{Section@tie 6.3}
@xrdef{rule-system-definition{}-title}{The defsystem grammar}
@xrdef{rule-system-definition{}-snt}{}
@xrdef{rule-system-designator{}-title}{The defsystem grammar}
@xrdef{rule-system-designator{}-snt}{}
@xrdef{rule-simple-component-name{}-title}{The defsystem grammar}
@xrdef{rule-simple-component-name{}-snt}{}
@xrdef{rule-complex-component-name{}-title}{The defsystem grammar}
@xrdef{rule-complex-component-name{}-snt}{}
@xrdef{rule-system-option{}-title}{The defsystem grammar}
@xrdef{rule-system-option{}-snt}{}
@xrdef{The defsystem grammar-pg}{16}
@xrdef{rule-system-definition{}-pg}{16}
@xrdef{rule-system-designator{}-pg}{16}
@xrdef{rule-simple-component-name{}-pg}{16}
@xrdef{rule-complex-component-name{}-pg}{16}
@xrdef{rule-system-option{}-pg}{16}
@xrdef{rule-system-option/asdf3{}-title}{The defsystem grammar}
@xrdef{rule-system-option/asdf3{}-snt}{}
@xrdef{rule-source-control{}-title}{The defsystem grammar}
@xrdef{rule-source-control{}-snt}{}
@xrdef{rule-module-option{}-title}{The defsystem grammar}
@xrdef{rule-module-option{}-snt}{}
@xrdef{rule-option{}-title}{The defsystem grammar}
@xrdef{rule-option{}-snt}{}
@xrdef{rule-person-or-persons{}-title}{The defsystem grammar}
@xrdef{rule-person-or-persons{}-snt}{}
@xrdef{rule-system-list{}-title}{The defsystem grammar}
@xrdef{rule-system-list{}-snt}{}
@xrdef{rule-component-list{}-title}{The defsystem grammar}
@xrdef{rule-component-list{}-snt}{}
@xrdef{rule-component-def{}-title}{The defsystem grammar}
@xrdef{rule-component-def{}-snt}{}
@xrdef{rule-component-type{}-title}{The defsystem grammar}
@xrdef{rule-component-type{}-snt}{}
@xrdef{rule-other-component-type{}-title}{The defsystem grammar}
@xrdef{rule-other-component-type{}-snt}{}
@xrdef{rule-system-option/asdf3{}-pg}{17}
@xrdef{rule-source-control{}-pg}{17}
@xrdef{rule-module-option{}-pg}{17}
@xrdef{rule-option{}-pg}{17}
@xrdef{rule-person-or-persons{}-pg}{17}
@xrdef{rule-system-list{}-pg}{17}
@xrdef{rule-component-list{}-pg}{17}
@xrdef{rule-component-def{}-pg}{17}
@xrdef{rule-component-type{}-pg}{17}
@xrdef{rule-other-component-type{}-pg}{17}
@xrdef{rule-dependency-def{}-title}{The defsystem grammar}
@xrdef{rule-dependency-def{}-snt}{}
@xrdef{rule-dependency{}-title}{The defsystem grammar}
@xrdef{rule-dependency{}-snt}{}
@xrdef{rule-requirement{}-title}{The defsystem grammar}
@xrdef{rule-requirement{}-snt}{}
@xrdef{rule-dependent-op{}-title}{The defsystem grammar}
@xrdef{rule-dependent-op{}-snt}{}
@xrdef{rule-required-op{}-title}{The defsystem grammar}
@xrdef{rule-required-op{}-snt}{}
@xrdef{rule-pathname-specifier{}-title}{The defsystem grammar}
@xrdef{rule-pathname-specifier{}-snt}{}
@xrdef{rule-version-specifier{}-title}{The defsystem grammar}
@xrdef{rule-version-specifier{}-snt}{}
@xrdef{rule-line-specifier{}-title}{The defsystem grammar}
@xrdef{rule-line-specifier{}-snt}{}
@xrdef{rule-form-specifier{}-title}{The defsystem grammar}
@xrdef{rule-form-specifier{}-snt}{}
@xrdef{rule-method-form{}-title}{The defsystem grammar}
@xrdef{rule-method-form{}-snt}{}
@xrdef{rule-qual{}-title}{The defsystem grammar}
@xrdef{rule-qual{}-snt}{}
@xrdef{rule-method-qualifier{}-title}{The defsystem grammar}
@xrdef{rule-method-qualifier{}-snt}{}
@xrdef{rule-feature-expression{}-title}{The defsystem grammar}
@xrdef{rule-feature-expression{}-snt}{}
@xrdef{rule-operation-name{}-title}{The defsystem grammar}
@xrdef{rule-operation-name{}-snt}{}
@xrdef{Simple component names-title}{Simple component names (@code {simple-component-name})}
@xrdef{Simple component names-snt}{}
@xrdef{rule-dependency-def{}-pg}{18}
@xrdef{rule-dependency{}-pg}{18}
@xrdef{rule-requirement{}-pg}{18}
@xrdef{rule-dependent-op{}-pg}{18}
@xrdef{rule-required-op{}-pg}{18}
@xrdef{rule-pathname-specifier{}-pg}{18}
@xrdef{rule-version-specifier{}-pg}{18}
@xrdef{rule-line-specifier{}-pg}{18}
@xrdef{rule-form-specifier{}-pg}{18}
@xrdef{rule-method-form{}-pg}{18}
@xrdef{rule-qual{}-pg}{18}
@xrdef{rule-method-qualifier{}-pg}{18}
@xrdef{rule-feature-expression{}-pg}{18}
@xrdef{rule-operation-name{}-pg}{18}
@xrdef{Simple component names-pg}{18}
@xrdef{Complex component names-title}{Complex component names}
@xrdef{Complex component names-snt}{}
@xrdef{Component types-title}{Component types}
@xrdef{Component types-snt}{}
@xrdef{System class names-title}{System class names}
@xrdef{System class names-snt}{}
@xrdef{Complex component names-pg}{19}
@xrdef{Component types-pg}{19}
@xrdef{System class names-pg}{19}
@xrdef{Build-operation-title}{Build-operation}
@xrdef{Build-operation-snt}{}
@xrdef{Pathname specifiers-title}{Pathname specifiers}
@xrdef{Pathname specifiers-snt}{}
@xrdef{Build-operation-pg}{20}
@xrdef{Pathname specifiers-pg}{20}
@xrdef{Version specifiers-title}{Version specifiers}
@xrdef{Version specifiers-snt}{}
@xrdef{Version specifiers-pg}{21}
@xrdef{Feature dependencies-title}{Feature dependencies}
@xrdef{Feature dependencies-snt}{}
@xrdef{Using logical pathnames-title}{Using logical pathnames}
@xrdef{Using logical pathnames-snt}{}
@xrdef{Feature dependencies-pg}{22}
@xrdef{Using logical pathnames-pg}{22}
@xrdef{if-feature option-title}{if-feature option}
@xrdef{if-feature option-snt}{}
@xrdef{Entry point-title}{Entry point}
@xrdef{Entry point-snt}{}
@xrdef{feature requirement-title}{feature requirement}
@xrdef{feature requirement-snt}{}
@xrdef{Other code in .asd files-title}{Other code in .asd files}
@xrdef{Other code in .asd files-snt}{Section@tie 6.4}
@xrdef{if-feature option-pg}{24}
@xrdef{Entry point-pg}{24}
@xrdef{feature requirement-pg}{24}
@xrdef{Other code in .asd files-pg}{24}
@xrdef{The package-inferred-system extension-title}{The package-inferred-system extension}
@xrdef{The package-inferred-system extension-snt}{Section@tie 6.5}
@xrdef{The package-inferred-system extension-pg}{25}
@xrdef{The object model of ASDF-title}{The Object model of ASDF}
@xrdef{The object model of ASDF-snt}{Chapter@tie 7}
@xrdef{Operations-title}{Operations}
@xrdef{Operations-snt}{Section@tie 7.1}
@xrdef{The object model of ASDF-pg}{28}
@xrdef{Operations-pg}{28}
@xrdef{operate-title}{Operations}
@xrdef{operate-snt}{}
@xrdef{make-operation-title}{Operations}
@xrdef{make-operation-snt}{}
@xrdef{operate-pg}{29}
@xrdef{make-operation-pg}{29}
@xrdef{Predefined operations of ASDF-title}{Predefined operations of ASDF}
@xrdef{Predefined operations of ASDF-snt}{Section@tie 7.1.1}
@xrdef{test-op-title}{Predefined operations of ASDF}
@xrdef{test-op-snt}{}
@xrdef{Predefined operations of ASDF-pg}{30}
@xrdef{test-op-pg}{30}
@xrdef{Creating new operations-title}{Creating new operations}
@xrdef{Creating new operations-snt}{Section@tie 7.1.2}
@xrdef{Creating new operations-pg}{33}
@xrdef{Components-title}{Components}
@xrdef{Components-snt}{Section@tie 7.2}
@xrdef{System names-title}{Components}
@xrdef{System names-snt}{}
@xrdef{Components-pg}{35}
@xrdef{System names-pg}{36}
@xrdef{Common attributes of components-title}{Common attributes of components}
@xrdef{Common attributes of components-snt}{Section@tie 7.2.1}
@xrdef{required-features-title}{Required features}
@xrdef{required-features-snt}{}
@xrdef{Common attributes of components-pg}{37}
@xrdef{required-features-pg}{38}
@xrdef{Pre-defined subclasses of component-title}{Pre-defined subclasses of component}
@xrdef{Pre-defined subclasses of component-snt}{Section@tie 7.2.2}
@xrdef{Pre-defined subclasses of component-pg}{40}
@xrdef{Creating new component types-title}{Creating new component types}
@xrdef{Creating new component types-snt}{Section@tie 7.2.3}
@xrdef{Dependencies-title}{Dependencies}
@xrdef{Dependencies-snt}{Section@tie 7.3}
@xrdef{Creating new component types-pg}{41}
@xrdef{Dependencies-pg}{41}
@xrdef{Functions-title}{Functions}
@xrdef{Functions-snt}{Section@tie 7.4}
@xrdef{Parsing system definitions-title}{Parsing system definitions}
@xrdef{Parsing system definitions-snt}{Section@tie 7.5}
@xrdef{Functions-pg}{42}
@xrdef{Parsing system definitions-pg}{42}
@xrdef{Controlling where ASDF searches for systems-title}{Controlling where ASDF searches for systems}
@xrdef{Controlling where ASDF searches for systems-snt}{Chapter@tie 8}
@xrdef{Configurations-title}{Configurations}
@xrdef{Configurations-snt}{Section@tie 8.1}
@xrdef{Controlling where ASDF searches for systems-pg}{44}
@xrdef{Configurations-pg}{44}
@xrdef{Truenames and other dangers-title}{Truenames and other dangers}
@xrdef{Truenames and other dangers-snt}{Section@tie 8.2}
@xrdef{XDG base directory-title}{XDG base directory}
@xrdef{XDG base directory-snt}{Section@tie 8.3}
@xrdef{Backward Compatibility-title}{Backward Compatibility}
@xrdef{Backward Compatibility-snt}{Section@tie 8.4}
@xrdef{Truenames and other dangers-pg}{45}
@xrdef{XDG base directory-pg}{45}
@xrdef{Backward Compatibility-pg}{45}
@xrdef{Configuration DSL-title}{Configuration DSL}
@xrdef{Configuration DSL-snt}{Section@tie 8.5}
@xrdef{Configuration DSL-pg}{46}
@xrdef{Configuration Directories-title}{Configuration Directories}
@xrdef{Configuration Directories-snt}{Section@tie 8.6}
@xrdef{The here directive-title}{The :here directive}
@xrdef{The here directive-snt}{Section@tie 8.6.1}
@xrdef{Configuration Directories-pg}{48}
@xrdef{Shell-friendly syntax for configuration-title}{Shell-friendly syntax for configuration}
@xrdef{Shell-friendly syntax for configuration-snt}{Section@tie 8.7}
@xrdef{Search Algorithm-title}{Search Algorithm}
@xrdef{Search Algorithm-snt}{Section@tie 8.8}
@xrdef{The here directive-pg}{49}
@xrdef{Shell-friendly syntax for configuration-pg}{49}
@xrdef{Caching Results-title}{Caching Results}
@xrdef{Caching Results-snt}{Section@tie 8.9}
@xrdef{Search Algorithm-pg}{50}
@xrdef{Caching Results-pg}{50}
@xrdef{Configuration API-title}{Configuration API}
@xrdef{Configuration API-snt}{Section@tie 8.10}
@xrdef{Configuration API-pg}{51}
@xrdef{Introspection-title}{Introspection}
@xrdef{Introspection-snt}{Section@tie 8.11}
@xrdef{*source-registry-parameter* variable-title}{*source-registry-parameter* variable}
@xrdef{*source-registry-parameter* variable-snt}{Section@tie 8.11.1}
@xrdef{Information about system dependencies-title}{Information about system dependencies}
@xrdef{Information about system dependencies-snt}{Section@tie 8.11.2}
@xrdef{Status-title}{Status}
@xrdef{Status-snt}{Section@tie 8.12}
@xrdef{Rejected ideas-title}{Rejected ideas}
@xrdef{Rejected ideas-snt}{Section@tie 8.13}
@xrdef{Introspection-pg}{52}
@xrdef{*source-registry-parameter* variable-pg}{52}
@xrdef{Information about system dependencies-pg}{52}
@xrdef{Status-pg}{52}
@xrdef{Rejected ideas-pg}{52}
@xrdef{TODO-title}{TODO}
@xrdef{TODO-snt}{Section@tie 8.14}
@xrdef{Credits for the source-registry-title}{Credits for the source-registry}
@xrdef{Credits for the source-registry-snt}{Section@tie 8.15}
@xrdef{TODO-pg}{53}
@xrdef{Credits for the source-registry-pg}{53}
@xrdef{Controlling where ASDF saves compiled files-title}{Controlling where ASDF saves compiled files}
@xrdef{Controlling where ASDF saves compiled files-snt}{Chapter@tie 9}
@xrdef{Output Configurations-title}{Configurations}
@xrdef{Output Configurations-snt}{Section@tie 9.1}
@xrdef{Controlling where ASDF saves compiled files-pg}{54}
@xrdef{Output Configurations-pg}{54}
@xrdef{Output Backward Compatibility-title}{Backward Compatibility}
@xrdef{Output Backward Compatibility-snt}{Section@tie 9.2}
@xrdef{Output Configuration DSL-title}{Configuration DSL}
@xrdef{Output Configuration DSL-snt}{Section@tie 9.3}
@xrdef{Output Backward Compatibility-pg}{55}
@xrdef{Output Configuration DSL-pg}{56}
@xrdef{Output Configuration Directories-title}{Configuration Directories}
@xrdef{Output Configuration Directories-snt}{Section@tie 9.4}
@xrdef{Output Shell-friendly syntax for configuration-title}{Shell-friendly syntax for configuration}
@xrdef{Output Shell-friendly syntax for configuration-snt}{Section@tie 9.5}
@xrdef{Semantics of Output Translations-title}{Semantics of Output Translations}
@xrdef{Semantics of Output Translations-snt}{Section@tie 9.6}
@xrdef{Output Configuration Directories-pg}{58}
@xrdef{Output Shell-friendly syntax for configuration-pg}{58}
@xrdef{Output Caching Results-title}{Caching Results}
@xrdef{Output Caching Results-snt}{Section@tie 9.7}
@xrdef{Output location API-title}{Output location API}
@xrdef{Output location API-snt}{Section@tie 9.8}
@xrdef{Semantics of Output Translations-pg}{59}
@xrdef{Output Caching Results-pg}{59}
@xrdef{Output location API-pg}{59}
@xrdef{Credits for output translations-title}{Credits for output translations}
@xrdef{Credits for output translations-snt}{Section@tie 9.9}
@xrdef{Credits for output translations-pg}{60}
@xrdef{Error handling-title}{Error handling}
@xrdef{Error handling-snt}{Chapter@tie 10}
@xrdef{Error handling-pg}{61}
@xrdef{Miscellaneous additional functionality-title}{Miscellaneous additional functionality}
@xrdef{Miscellaneous additional functionality-snt}{Chapter@tie 11}
@xrdef{Controlling file compilation-title}{Controlling file compilation}
@xrdef{Controlling file compilation-snt}{Section@tie 11.1}
@xrdef{Controlling source file character encoding-title}{Controlling source file character encoding}
@xrdef{Controlling source file character encoding-snt}{Section@tie 11.2}
@xrdef{Miscellaneous additional functionality-pg}{62}
@xrdef{Controlling file compilation-pg}{62}
@xrdef{Controlling source file character encoding-pg}{63}
@xrdef{Miscellaneous Functions-title}{Miscellaneous Functions}
@xrdef{Miscellaneous Functions-snt}{Section@tie 11.3}
@xrdef{system-relative-pathname-title}{Miscellaneous Functions}
@xrdef{system-relative-pathname-snt}{}
@xrdef{Miscellaneous Functions-pg}{64}
@xrdef{system-relative-pathname-pg}{64}
@xrdef{Some Utility Functions-title}{Some Utility Functions}
@xrdef{Some Utility Functions-snt}{Section@tie 11.4}
@xrdef{Some Utility Functions-pg}{66}
@xrdef{Getting the latest version-title}{Getting the latest version}
@xrdef{Getting the latest version-snt}{Chapter@tie 12}
@xrdef{Getting the latest version-pg}{70}
@xrdef{FAQ-title}{FAQ}
@xrdef{FAQ-snt}{Chapter@tie 13}
@xrdef{Where do I report a bug?-title}{``Where do I report a bug?''}
@xrdef{Where do I report a bug?-snt}{Section@tie 13.1}
@xrdef{Mailing list-title}{Mailing list}
@xrdef{Mailing list-snt}{Section@tie 13.2}
@xrdef{What has changed between ASDF 1 ASDF 2 and ASDF 3?-title}{``What has changed between ASDF 1, ASDF 2, and ASDF 3?''}
@xrdef{What has changed between ASDF 1 ASDF 2 and ASDF 3?-snt}{Section@tie 13.3}
@xrdef{What are ASDF 1 2 3?-title}{What are ASDF 1, ASDF 2, and ASDF 3?}
@xrdef{What are ASDF 1 2 3?-snt}{Section@tie 13.3.1}
@xrdef{FAQ-pg}{71}
@xrdef{Where do I report a bug?-pg}{71}
@xrdef{Mailing list-pg}{71}
@xrdef{What has changed between ASDF 1 ASDF 2 and ASDF 3?-pg}{71}
@xrdef{What are ASDF 1 2 3?-pg}{71}
@xrdef{How do I detect the ASDF version?-title}{How do I detect the ASDF version?}
@xrdef{How do I detect the ASDF version?-snt}{Section@tie 13.3.2}
@xrdef{ASDF can portably name files in subdirectories-title}{ASDF can portably name files in subdirectories}
@xrdef{ASDF can portably name files in subdirectories-snt}{Section@tie 13.3.3}
@xrdef{How do I detect the ASDF version?-pg}{72}
@xrdef{ASDF can portably name files in subdirectories-pg}{72}
@xrdef{Output translations-title}{Output translations}
@xrdef{Output translations-snt}{Section@tie 13.3.4}
@xrdef{Source Registry Configuration-title}{Source Registry Configuration}
@xrdef{Source Registry Configuration-snt}{Section@tie 13.3.5}
@xrdef{Usual operations are made easier to the user-title}{Usual operations are made easier to the user}
@xrdef{Usual operations are made easier to the user-snt}{Section@tie 13.3.6}
@xrdef{Output translations-pg}{73}
@xrdef{Source Registry Configuration-pg}{73}
@xrdef{Many bugs have been fixed-title}{Many bugs have been fixed}
@xrdef{Many bugs have been fixed-snt}{Section@tie 13.3.7}
@xrdef{ASDF itself is versioned-title}{ASDF itself is versioned}
@xrdef{ASDF itself is versioned-snt}{Section@tie 13.3.8}
@xrdef{ASDF can be upgraded-title}{ASDF can be upgraded}
@xrdef{ASDF can be upgraded-snt}{Section@tie 13.3.9}
@xrdef{Usual operations are made easier to the user-pg}{74}
@xrdef{Many bugs have been fixed-pg}{74}
@xrdef{ASDF itself is versioned-pg}{74}
@xrdef{ASDF can be upgraded-pg}{74}
@xrdef{Decoupled release cycle-title}{Decoupled release cycle}
@xrdef{Decoupled release cycle-snt}{Section@tie 13.3.10}
@xrdef{Pitfalls of the transition to ASDF 2-title}{Pitfalls of the transition to ASDF 2}
@xrdef{Pitfalls of the transition to ASDF 2-snt}{Section@tie 13.3.11}
@xrdef{Decoupled release cycle-pg}{75}
@xrdef{Pitfalls of the transition to ASDF 2-pg}{75}
@xrdef{Pitfalls of the upgrade to ASDF 3-title}{Pitfalls of the upgrade to ASDF 3}
@xrdef{Pitfalls of the upgrade to ASDF 3-snt}{Section@tie 13.3.12}
@xrdef{Pitfalls of the upgrade to ASDF 3-pg}{76}
@xrdef{reinitializeASDFAfterUpgrade-title}{Pitfalls of the upgrade to ASDF 3}
@xrdef{reinitializeASDFAfterUpgrade-snt}{}
@xrdef{What happened to the bundle operations-title}{What happened to the bundle operations?}
@xrdef{What happened to the bundle operations-snt}{Section@tie 13.3.13}
@xrdef{reinitializeASDFAfterUpgrade-pg}{77}
@xrdef{What happened to the bundle operations-pg}{77}
@xrdef{Issues with installing the proper version of ASDF-title}{Issues with installing the proper version of ASDF}
@xrdef{Issues with installing the proper version of ASDF-snt}{Section@tie 13.4}
@xrdef{My Common Lisp implementation comes with an outdated version of ASDF. What to do?-title}{``My Common Lisp implementation comes with an outdated version of ASDF. What to do?''}
@xrdef{My Common Lisp implementation comes with an outdated version of ASDF. What to do?-snt}{Section@tie 13.4.1}
@xrdef{I'm a Common Lisp implementation vendor. When and how should I upgrade ASDF?-title}{``I'm a Common Lisp implementation vendor. When and how should I upgrade ASDF?''}
@xrdef{I'm a Common Lisp implementation vendor. When and how should I upgrade ASDF?-snt}{Section@tie 13.4.2}
@xrdef{Issues with installing the proper version of ASDF-pg}{78}
@xrdef{My Common Lisp implementation comes with an outdated version of ASDF. What to do?-pg}{78}
@xrdef{I'm a Common Lisp implementation vendor. When and how should I upgrade ASDF?-pg}{78}
@xrdef{After upgrading ASDF-title}{After upgrading ASDF, ASDF (and Quicklisp) can't find my systems}
@xrdef{After upgrading ASDF-snt}{Section@tie 13.4.3}
@xrdef{Issues with configuring ASDF-title}{Issues with configuring ASDF}
@xrdef{Issues with configuring ASDF-snt}{Section@tie 13.5}
@xrdef{How can I customize where fasl files are stored?-title}{``How can I customize where fasl files are stored?''}
@xrdef{How can I customize where fasl files are stored?-snt}{Section@tie 13.5.1}
@xrdef{After upgrading ASDF-pg}{79}
@xrdef{Issues with configuring ASDF-pg}{79}
@xrdef{How can I wholly disable the compiler output cache?-title}{``How can I wholly disable the compiler output cache?''}
@xrdef{How can I wholly disable the compiler output cache?-snt}{Section@tie 13.5.2}
@xrdef{How can I debug problems finding ASDF systems-title}{How can I debug problems finding ASDF systems?}
@xrdef{How can I debug problems finding ASDF systems-snt}{Section@tie 13.5.3}
@xrdef{How can I customize where fasl files are stored?-pg}{80}
@xrdef{How can I wholly disable the compiler output cache?-pg}{80}
@xrdef{How can I debug problems finding ASDF systems-pg}{80}
@xrdef{Issues with using and extending ASDF to define systems-title}{Issues with using and extending ASDF to define systems}
@xrdef{Issues with using and extending ASDF to define systems-snt}{Section@tie 13.6}
@xrdef{How can I cater for unit-testing in my system?-title}{``How can I cater for unit-testing in my system?''}
@xrdef{How can I cater for unit-testing in my system?-snt}{Section@tie 13.6.1}
@xrdef{How can I cater for documentation generation in my system?-title}{``How can I cater for documentation generation in my system?''}
@xrdef{How can I cater for documentation generation in my system?-snt}{Section@tie 13.6.2}
@xrdef{How can I maintain non-Lisp (e.g. C) source files?-title}{``How can I maintain non-Lisp (e.g. C) source files?''}
@xrdef{How can I maintain non-Lisp (e.g. C) source files?-snt}{Section@tie 13.6.3}
@xrdef{report-bugs-title}{``How can I maintain non-Lisp (e.g. C) source files?''}
@xrdef{report-bugs-snt}{}
@xrdef{I want to put my module's files at the top level. How do I do this?-title}{``I want to put my module's files at the top level. How do I do this?''}
@xrdef{I want to put my module's files at the top level. How do I do this?-snt}{Section@tie 13.6.4}
@xrdef{Issues with using and extending ASDF to define systems-pg}{81}
@xrdef{How can I cater for unit-testing in my system?-pg}{81}
@xrdef{How can I cater for documentation generation in my system?-pg}{81}
@xrdef{How can I maintain non-Lisp (e.g. C) source files?-pg}{81}
@xrdef{report-bugs-pg}{81}
@xrdef{I want to put my module's files at the top level. How do I do this?-pg}{81}
@xrdef{How do I create a system definition where all the source files have a .cl extension?-title}{How do I create a system definition where all the source files have a .cl extension?}
@xrdef{How do I create a system definition where all the source files have a .cl extension?-snt}{Section@tie 13.6.5}
@xrdef{How do I create a system definition where all the source files have a .cl extension?-pg}{82}
@xrdef{How do I mark a source file to be loaded only and not compiled?-title}{How do I mark a source file to be loaded only and not compiled?}
@xrdef{How do I mark a source file to be loaded only and not compiled?-snt}{Section@tie 13.6.6}
@xrdef{How do I work with readtables?-title}{How do I work with readtables?}
@xrdef{How do I work with readtables?-snt}{Section@tie 13.6.7}
@xrdef{How do I mark a source file to be loaded only and not compiled?-pg}{83}
@xrdef{How do I work with readtables?-pg}{83}
@xrdef{How can I capture ASDF's output?-title}{How can I capture ASDF's output?}
@xrdef{How can I capture ASDF's output?-snt}{Section@tie 13.6.8}
@xrdef{LOAD-PATHNAME has a weird value-title}{*LOAD-PATHNAME* and *LOAD-TRUENAME* have weird values, help!}
@xrdef{LOAD-PATHNAME has a weird value-snt}{Section@tie 13.6.9}
@xrdef{How can I capture ASDF's output?-pg}{84}
@xrdef{How can I produce a binary at a specific path from sources at a specific path-title}{How can I produce a binary at a specific path from sources at a specific path?}
@xrdef{How can I produce a binary at a specific path from sources at a specific path-snt}{Section@tie 13.6.10}
@xrdef{ASDF development FAQs-title}{ASDF development FAQs}
@xrdef{ASDF development FAQs-snt}{Section@tie 13.7}
@xrdef{How do I run the tests interactively in a REPL?-title}{How do I run the tests interactively in a REPL?}
@xrdef{How do I run the tests interactively in a REPL?-snt}{Section@tie 13.7.1}
@xrdef{LOAD-PATHNAME has a weird value-pg}{85}
@xrdef{How can I produce a binary at a specific path from sources at a specific path-pg}{85}
@xrdef{ASDF development FAQs-pg}{85}
@xrdef{How do I run the tests interactively in a REPL?-pg}{86}
@xrdef{Ongoing Work-title}{Ongoing Work}
@xrdef{Ongoing Work-snt}{}
@xrdef{Ongoing Work-pg}{87}
@xrdef{Bibliography-title}{Bibliography}
@xrdef{Bibliography-snt}{}
@xrdef{Bibliography-pg}{88}
@xrdef{Concept Index-title}{Concept Index}
@xrdef{Concept Index-snt}{}
@xrdef{Concept Index-pg}{90}
@xrdef{Function and Macro Index-title}{Function and Macro Index}
@xrdef{Function and Macro Index-snt}{}
@xrdef{Function and Macro Index-pg}{92}
@xrdef{Variable Index-title}{Variable Index}
@xrdef{Variable Index-snt}{}
@xrdef{Variable Index-pg}{93}
@xrdef{Class and Type Index-title}{Class and Type Index}
@xrdef{Class and Type Index-snt}{}
@xrdef{Class and Type Index-pg}{94}
