\relax 
\providecommand\hyper@newdestlabel[2]{}
\newlabel{JSS:*CL-USER-COMPATIBILITY*}{{C}{90}{}{section*.639}{}}
\@writefile{toc}{\contentsline {paragraph}{}{90}{section*.639}\protected@file@percent }
\newlabel{JSS:*DO-AUTO-IMPORTS*}{{C}{90}{}{section*.640}{}}
\@writefile{toc}{\contentsline {paragraph}{}{90}{section*.640}\protected@file@percent }
\newlabel{JSS:*MUFFLE-WARNINGS*}{{C}{90}{}{section*.641}{}}
\@writefile{toc}{\contentsline {paragraph}{}{90}{section*.641}\protected@file@percent }
\newlabel{JSS:CLASSFILES-IMPORT}{{C}{90}{}{section*.642}{}}
\@writefile{toc}{\contentsline {paragraph}{}{90}{section*.642}\protected@file@percent }
\newlabel{JSS:ENSURE-COMPATIBILITY}{{C}{90}{}{section*.643}{}}
\@writefile{toc}{\contentsline {paragraph}{}{90}{section*.643}\protected@file@percent }
\newlabel{JSS:FIND-JAVA-CLASS}{{C}{90}{}{section*.644}{}}
\@writefile{toc}{\contentsline {paragraph}{}{90}{section*.644}\protected@file@percent }
\newlabel{JSS:GET-JAVA-FIELD}{{C}{90}{}{section*.645}{}}
\@writefile{toc}{\contentsline {paragraph}{}{90}{section*.645}\protected@file@percent }
\newlabel{JSS:HASHMAP-TO-HASHTABLE}{{C}{90}{}{section*.646}{}}
\@writefile{toc}{\contentsline {paragraph}{}{90}{section*.646}\protected@file@percent }
\newlabel{JSS:INVOKE-ADD-IMPORTS}{{C}{90}{}{section*.647}{}}
\@writefile{toc}{\contentsline {paragraph}{}{90}{section*.647}\protected@file@percent }
\newlabel{JSS:INVOKE-RESTARGS}{{C}{90}{}{section*.648}{}}
\@writefile{toc}{\contentsline {paragraph}{}{90}{section*.648}\protected@file@percent }
\newlabel{JSS:ITERABLE-TO-LIST}{{C}{90}{}{section*.649}{}}
\@writefile{toc}{\contentsline {paragraph}{}{90}{section*.649}\protected@file@percent }
\newlabel{JSS:J2LIST}{{C}{90}{}{section*.650}{}}
\@writefile{toc}{\contentsline {paragraph}{}{90}{section*.650}\protected@file@percent }
\newlabel{JSS:JAPROPOS}{{C}{91}{}{section*.651}{}}
\@writefile{toc}{\contentsline {paragraph}{}{91}{section*.651}\protected@file@percent }
\newlabel{JSS:JAR-IMPORT}{{C}{91}{}{section*.652}{}}
\@writefile{toc}{\contentsline {paragraph}{}{91}{section*.652}\protected@file@percent }
\newlabel{JSS:JARRAY-TO-LIST}{{C}{91}{}{section*.653}{}}
\@writefile{toc}{\contentsline {paragraph}{}{91}{section*.653}\protected@file@percent }
\newlabel{JSS:JAVA-CLASS-METHOD-NAMES}{{C}{91}{}{section*.654}{}}
\@writefile{toc}{\contentsline {paragraph}{}{91}{section*.654}\protected@file@percent }
\newlabel{JSS:JCLASS-ALL-INTERFACES}{{C}{91}{}{section*.655}{}}
\@writefile{toc}{\contentsline {paragraph}{}{91}{section*.655}\protected@file@percent }
\newlabel{JSS:JCMN}{{C}{91}{}{section*.656}{}}
\@writefile{toc}{\contentsline {paragraph}{}{91}{section*.656}\protected@file@percent }
\newlabel{JSS:JLIST-TO-LIST}{{C}{91}{}{section*.657}{}}
\@writefile{toc}{\contentsline {paragraph}{}{91}{section*.657}\protected@file@percent }
\newlabel{JSS:JMAP}{{C}{91}{}{section*.658}{}}
\@writefile{toc}{\contentsline {paragraph}{}{91}{section*.658}\protected@file@percent }
\newlabel{JSS:JTYPECASE}{{C}{91}{}{section*.659}{}}
\@writefile{toc}{\contentsline {paragraph}{}{91}{section*.659}\protected@file@percent }
\newlabel{JSS:JTYPEP}{{C}{91}{}{section*.660}{}}
\@writefile{toc}{\contentsline {paragraph}{}{91}{section*.660}\protected@file@percent }
\newlabel{JSS:LIST-TO-LIST}{{C}{91}{}{section*.661}{}}
\@writefile{toc}{\contentsline {paragraph}{}{91}{section*.661}\protected@file@percent }
\newlabel{JSS:NEW}{{C}{92}{}{section*.662}{}}
\@writefile{toc}{\contentsline {paragraph}{}{92}{section*.662}\protected@file@percent }
\newlabel{JSS:SET-JAVA-FIELD}{{C}{92}{}{section*.663}{}}
\@writefile{toc}{\contentsline {paragraph}{}{92}{section*.663}\protected@file@percent }
\newlabel{JSS:SET-TO-LIST}{{C}{92}{}{section*.664}{}}
\@writefile{toc}{\contentsline {paragraph}{}{92}{section*.664}\protected@file@percent }
\newlabel{JSS:TO-HASHSET}{{C}{92}{}{section*.665}{}}
\@writefile{toc}{\contentsline {paragraph}{}{92}{section*.665}\protected@file@percent }
\newlabel{JSS:VECTOR-TO-LIST}{{C}{92}{}{section*.666}{}}
\@writefile{toc}{\contentsline {paragraph}{}{92}{section*.666}\protected@file@percent }
\newlabel{JSS:WITH-CONSTANT-SIGNATURE}{{C}{92}{}{section*.667}{}}
\@writefile{toc}{\contentsline {paragraph}{}{92}{section*.667}\protected@file@percent }
\@setckpt{jss}{
\setcounter{page}{93}
\setcounter{equation}{0}
\setcounter{enumi}{6}
\setcounter{enumii}{0}
\setcounter{enumiii}{0}
\setcounter{enumiv}{0}
\setcounter{footnote}{0}
\setcounter{mpfootnote}{0}
\setcounter{part}{0}
\setcounter{chapter}{3}
\setcounter{section}{0}
\setcounter{subsection}{0}
\setcounter{subsubsection}{0}
\setcounter{paragraph}{0}
\setcounter{subparagraph}{0}
\setcounter{figure}{0}
\setcounter{table}{0}
\setcounter{section@level}{4}
\setcounter{Item}{6}
\setcounter{Hfootnote}{30}
\setcounter{bookmark@seq@number}{70}
\setcounter{lstnumber}{38}
\setcounter{cp@cntr}{0}
\setcounter{lstlisting}{0}
}
