\relax 
\providecommand\hyper@newdestlabel[2]{}
\newlabel{MOP:DEFGENERIC}{{A}{60}{}{section*.252}{}}
\@writefile{toc}{\contentsline {paragraph}{}{60}{section*.252}\protected@file@percent }
\newlabel{MOP:ACCESSOR-METHOD-SLOT-DEFINITION}{{A}{60}{}{section*.253}{}}
\@writefile{toc}{\contentsline {paragraph}{}{60}{section*.253}\protected@file@percent }
\newlabel{MOP:ADD-DEPENDENT}{{A}{60}{}{section*.254}{}}
\@writefile{toc}{\contentsline {paragraph}{}{60}{section*.254}\protected@file@percent }
\newlabel{MOP:ADD-DIRECT-METHOD}{{A}{60}{}{section*.255}{}}
\@writefile{toc}{\contentsline {paragraph}{}{60}{section*.255}\protected@file@percent }
\newlabel{MOP:ADD-DIRECT-SUBCLASS}{{A}{60}{}{section*.256}{}}
\@writefile{toc}{\contentsline {paragraph}{}{60}{section*.256}\protected@file@percent }
\newlabel{MOP:CANONICALIZE-DIRECT-SUPERCLASSES}{{A}{60}{}{section*.257}{}}
\@writefile{toc}{\contentsline {paragraph}{}{60}{section*.257}\protected@file@percent }
\newlabel{MOP:CLASS-DEFAULT-INITARGS}{{A}{60}{}{section*.258}{}}
\@writefile{toc}{\contentsline {paragraph}{}{60}{section*.258}\protected@file@percent }
\newlabel{MOP:CLASS-DIRECT-DEFAULT-INITARGS}{{A}{60}{}{section*.259}{}}
\@writefile{toc}{\contentsline {paragraph}{}{60}{section*.259}\protected@file@percent }
\newlabel{MOP:CLASS-DIRECT-METHODS}{{A}{60}{}{section*.260}{}}
\@writefile{toc}{\contentsline {paragraph}{}{60}{section*.260}\protected@file@percent }
\newlabel{MOP:CLASS-DIRECT-SLOTS}{{A}{60}{}{section*.261}{}}
\@writefile{toc}{\contentsline {paragraph}{}{60}{section*.261}\protected@file@percent }
\newlabel{MOP:CLASS-DIRECT-SUBCLASSES}{{A}{60}{}{section*.262}{}}
\@writefile{toc}{\contentsline {paragraph}{}{60}{section*.262}\protected@file@percent }
\newlabel{MOP:CLASS-DIRECT-SUPERCLASSES}{{A}{60}{}{section*.263}{}}
\@writefile{toc}{\contentsline {paragraph}{}{60}{section*.263}\protected@file@percent }
\newlabel{MOP:CLASS-DOCUMENTATION}{{A}{60}{}{section*.264}{}}
\@writefile{toc}{\contentsline {paragraph}{}{60}{section*.264}\protected@file@percent }
\newlabel{MOP:CLASS-FINALIZED-P}{{A}{60}{}{section*.265}{}}
\@writefile{toc}{\contentsline {paragraph}{}{60}{section*.265}\protected@file@percent }
\newlabel{MOP:CLASS-PRECEDENCE-LIST}{{A}{60}{}{section*.266}{}}
\@writefile{toc}{\contentsline {paragraph}{}{60}{section*.266}\protected@file@percent }
\newlabel{MOP:CLASS-PROTOTYPE}{{A}{60}{}{section*.267}{}}
\@writefile{toc}{\contentsline {paragraph}{}{60}{section*.267}\protected@file@percent }
\newlabel{MOP:CLASS-SLOTS}{{A}{61}{}{section*.268}{}}
\@writefile{toc}{\contentsline {paragraph}{}{61}{section*.268}\protected@file@percent }
\newlabel{COMMON-LISP:COMPUTE-APPLICABLE-METHODS}{{A}{61}{}{section*.269}{}}
\@writefile{toc}{\contentsline {paragraph}{}{61}{section*.269}\protected@file@percent }
\newlabel{MOP:COMPUTE-APPLICABLE-METHODS-USING-CLASSES}{{A}{61}{}{section*.270}{}}
\@writefile{toc}{\contentsline {paragraph}{}{61}{section*.270}\protected@file@percent }
\newlabel{MOP:COMPUTE-CLASS-PRECEDENCE-LIST}{{A}{61}{}{section*.271}{}}
\@writefile{toc}{\contentsline {paragraph}{}{61}{section*.271}\protected@file@percent }
\newlabel{MOP:COMPUTE-DEFAULT-INITARGS}{{A}{61}{}{section*.272}{}}
\@writefile{toc}{\contentsline {paragraph}{}{61}{section*.272}\protected@file@percent }
\newlabel{MOP:COMPUTE-DISCRIMINATING-FUNCTION}{{A}{61}{}{section*.273}{}}
\@writefile{toc}{\contentsline {paragraph}{}{61}{section*.273}\protected@file@percent }
\newlabel{MOP:COMPUTE-EFFECTIVE-METHOD}{{A}{61}{}{section*.274}{}}
\@writefile{toc}{\contentsline {paragraph}{}{61}{section*.274}\protected@file@percent }
\newlabel{MOP:COMPUTE-EFFECTIVE-SLOT-DEFINITION}{{A}{61}{}{section*.275}{}}
\@writefile{toc}{\contentsline {paragraph}{}{61}{section*.275}\protected@file@percent }
\newlabel{MOP:COMPUTE-SLOTS}{{A}{61}{}{section*.276}{}}
\@writefile{toc}{\contentsline {paragraph}{}{61}{section*.276}\protected@file@percent }
\newlabel{MOP:DIRECT-SLOT-DEFINITION}{{A}{61}{}{section*.277}{}}
\@writefile{toc}{\contentsline {paragraph}{}{61}{section*.277}\protected@file@percent }
\newlabel{MOP:DIRECT-SLOT-DEFINITION-CLASS}{{A}{61}{}{section*.278}{}}
\@writefile{toc}{\contentsline {paragraph}{}{61}{section*.278}\protected@file@percent }
\newlabel{MOP:EFFECTIVE-SLOT-DEFINITION}{{A}{61}{}{section*.279}{}}
\@writefile{toc}{\contentsline {paragraph}{}{61}{section*.279}\protected@file@percent }
\newlabel{MOP:EFFECTIVE-SLOT-DEFINITION-CLASS}{{A}{61}{}{section*.280}{}}
\@writefile{toc}{\contentsline {paragraph}{}{61}{section*.280}\protected@file@percent }
\newlabel{MOP:ENSURE-CLASS}{{A}{61}{}{section*.281}{}}
\@writefile{toc}{\contentsline {paragraph}{}{61}{section*.281}\protected@file@percent }
\newlabel{MOP:ENSURE-CLASS-USING-CLASS}{{A}{61}{}{section*.282}{}}
\@writefile{toc}{\contentsline {paragraph}{}{61}{section*.282}\protected@file@percent }
\newlabel{MOP:ENSURE-GENERIC-FUNCTION-USING-CLASS}{{A}{61}{}{section*.283}{}}
\@writefile{toc}{\contentsline {paragraph}{}{61}{section*.283}\protected@file@percent }
\newlabel{MOP:EQL-SPECIALIZER}{{A}{62}{}{section*.284}{}}
\@writefile{toc}{\contentsline {paragraph}{}{62}{section*.284}\protected@file@percent }
\newlabel{MOP:EQL-SPECIALIZER-OBJECT}{{A}{62}{}{section*.285}{}}
\@writefile{toc}{\contentsline {paragraph}{}{62}{section*.285}\protected@file@percent }
\newlabel{MOP:EXTRACT-LAMBDA-LIST}{{A}{62}{}{section*.286}{}}
\@writefile{toc}{\contentsline {paragraph}{}{62}{section*.286}\protected@file@percent }
\newlabel{MOP:EXTRACT-SPECIALIZER-NAMES}{{A}{62}{}{section*.287}{}}
\@writefile{toc}{\contentsline {paragraph}{}{62}{section*.287}\protected@file@percent }
\newlabel{MOP:FINALIZE-INHERITANCE}{{A}{62}{}{section*.288}{}}
\@writefile{toc}{\contentsline {paragraph}{}{62}{section*.288}\protected@file@percent }
\newlabel{MOP:FIND-METHOD-COMBINATION}{{A}{62}{}{section*.289}{}}
\@writefile{toc}{\contentsline {paragraph}{}{62}{section*.289}\protected@file@percent }
\newlabel{SYSTEM:FORWARD-REFERENCED-CLASS}{{A}{62}{}{section*.290}{}}
\@writefile{toc}{\contentsline {paragraph}{}{62}{section*.290}\protected@file@percent }
\newlabel{MOP:FUNCALLABLE-STANDARD-CLASS}{{A}{62}{}{section*.291}{}}
\@writefile{toc}{\contentsline {paragraph}{}{62}{section*.291}\protected@file@percent }
\newlabel{MOP:FUNCALLABLE-STANDARD-INSTANCE-ACCESS}{{A}{62}{}{section*.292}{}}
\@writefile{toc}{\contentsline {paragraph}{}{62}{section*.292}\protected@file@percent }
\newlabel{MOP:FUNCALLABLE-STANDARD-OBJECT}{{A}{62}{}{section*.293}{}}
\@writefile{toc}{\contentsline {paragraph}{}{62}{section*.293}\protected@file@percent }
\newlabel{MOP:GENERIC-FUNCTION-ARGUMENT-PRECEDENCE-ORDER}{{A}{62}{}{section*.294}{}}
\@writefile{toc}{\contentsline {paragraph}{}{62}{section*.294}\protected@file@percent }
\newlabel{MOP:GENERIC-FUNCTION-DECLARATIONS}{{A}{62}{}{section*.295}{}}
\@writefile{toc}{\contentsline {paragraph}{}{62}{section*.295}\protected@file@percent }
\newlabel{MOP:GENERIC-FUNCTION-LAMBDA-LIST}{{A}{62}{}{section*.296}{}}
\@writefile{toc}{\contentsline {paragraph}{}{62}{section*.296}\protected@file@percent }
\newlabel{MOP:GENERIC-FUNCTION-METHOD-CLASS}{{A}{62}{}{section*.297}{}}
\@writefile{toc}{\contentsline {paragraph}{}{62}{section*.297}\protected@file@percent }
\newlabel{MOP:GENERIC-FUNCTION-METHOD-COMBINATION}{{A}{62}{}{section*.298}{}}
\@writefile{toc}{\contentsline {paragraph}{}{62}{section*.298}\protected@file@percent }
\newlabel{MOP:GENERIC-FUNCTION-METHODS}{{A}{62}{}{section*.299}{}}
\@writefile{toc}{\contentsline {paragraph}{}{62}{section*.299}\protected@file@percent }
\newlabel{MOP:GENERIC-FUNCTION-NAME}{{A}{63}{}{section*.300}{}}
\@writefile{toc}{\contentsline {paragraph}{}{63}{section*.300}\protected@file@percent }
\newlabel{MOP:INTERN-EQL-SPECIALIZER}{{A}{63}{}{section*.301}{}}
\@writefile{toc}{\contentsline {paragraph}{}{63}{section*.301}\protected@file@percent }
\newlabel{MOP:MAKE-METHOD-LAMBDA}{{A}{63}{}{section*.302}{}}
\@writefile{toc}{\contentsline {paragraph}{}{63}{section*.302}\protected@file@percent }
\newlabel{MOP:MAP-DEPENDENTS}{{A}{63}{}{section*.303}{}}
\@writefile{toc}{\contentsline {paragraph}{}{63}{section*.303}\protected@file@percent }
\newlabel{MOP:METAOBJECT}{{A}{63}{}{section*.304}{}}
\@writefile{toc}{\contentsline {paragraph}{}{63}{section*.304}\protected@file@percent }
\newlabel{MOP:METHOD-FUNCTION}{{A}{63}{}{section*.305}{}}
\@writefile{toc}{\contentsline {paragraph}{}{63}{section*.305}\protected@file@percent }
\newlabel{MOP:METHOD-GENERIC-FUNCTION}{{A}{63}{}{section*.306}{}}
\@writefile{toc}{\contentsline {paragraph}{}{63}{section*.306}\protected@file@percent }
\newlabel{MOP:METHOD-LAMBDA-LIST}{{A}{63}{}{section*.307}{}}
\@writefile{toc}{\contentsline {paragraph}{}{63}{section*.307}\protected@file@percent }
\newlabel{COMMON-LISP:METHOD-QUALIFIERS}{{A}{63}{}{section*.308}{}}
\@writefile{toc}{\contentsline {paragraph}{}{63}{section*.308}\protected@file@percent }
\newlabel{MOP:METHOD-SPECIALIZERS}{{A}{63}{}{section*.309}{}}
\@writefile{toc}{\contentsline {paragraph}{}{63}{section*.309}\protected@file@percent }
\newlabel{MOP:READER-METHOD-CLASS}{{A}{63}{}{section*.310}{}}
\@writefile{toc}{\contentsline {paragraph}{}{63}{section*.310}\protected@file@percent }
\newlabel{MOP:REMOVE-DEPENDENT}{{A}{63}{}{section*.311}{}}
\@writefile{toc}{\contentsline {paragraph}{}{63}{section*.311}\protected@file@percent }
\newlabel{MOP:REMOVE-DIRECT-METHOD}{{A}{63}{}{section*.312}{}}
\@writefile{toc}{\contentsline {paragraph}{}{63}{section*.312}\protected@file@percent }
\newlabel{MOP:REMOVE-DIRECT-SUBCLASS}{{A}{63}{}{section*.313}{}}
\@writefile{toc}{\contentsline {paragraph}{}{63}{section*.313}\protected@file@percent }
\newlabel{MOP:SET-FUNCALLABLE-INSTANCE-FUNCTION}{{A}{63}{}{section*.314}{}}
\@writefile{toc}{\contentsline {paragraph}{}{63}{section*.314}\protected@file@percent }
\newlabel{MOP:SLOT-BOUNDP-USING-CLASS}{{A}{63}{}{section*.315}{}}
\@writefile{toc}{\contentsline {paragraph}{}{63}{section*.315}\protected@file@percent }
\newlabel{SYSTEM:SLOT-DEFINITION}{{A}{64}{}{section*.316}{}}
\@writefile{toc}{\contentsline {paragraph}{}{64}{section*.316}\protected@file@percent }
\newlabel{MOP:SLOT-DEFINITION-ALLOCATION}{{A}{64}{}{section*.317}{}}
\@writefile{toc}{\contentsline {paragraph}{}{64}{section*.317}\protected@file@percent }
\newlabel{MOP:SLOT-DEFINITION-DOCUMENTATION}{{A}{64}{}{section*.318}{}}
\@writefile{toc}{\contentsline {paragraph}{}{64}{section*.318}\protected@file@percent }
\newlabel{MOP:SLOT-DEFINITION-INITARGS}{{A}{64}{}{section*.319}{}}
\@writefile{toc}{\contentsline {paragraph}{}{64}{section*.319}\protected@file@percent }
\newlabel{MOP:SLOT-DEFINITION-INITFORM}{{A}{64}{}{section*.320}{}}
\@writefile{toc}{\contentsline {paragraph}{}{64}{section*.320}\protected@file@percent }
\newlabel{MOP:SLOT-DEFINITION-INITFUNCTION}{{A}{64}{}{section*.321}{}}
\@writefile{toc}{\contentsline {paragraph}{}{64}{section*.321}\protected@file@percent }
\newlabel{MOP:SLOT-DEFINITION-LOCATION}{{A}{64}{}{section*.322}{}}
\@writefile{toc}{\contentsline {paragraph}{}{64}{section*.322}\protected@file@percent }
\newlabel{MOP:SLOT-DEFINITION-NAME}{{A}{64}{}{section*.323}{}}
\@writefile{toc}{\contentsline {paragraph}{}{64}{section*.323}\protected@file@percent }
\newlabel{MOP:SLOT-DEFINITION-READERS}{{A}{64}{}{section*.324}{}}
\@writefile{toc}{\contentsline {paragraph}{}{64}{section*.324}\protected@file@percent }
\newlabel{MOP:SLOT-DEFINITION-TYPE}{{A}{64}{}{section*.325}{}}
\@writefile{toc}{\contentsline {paragraph}{}{64}{section*.325}\protected@file@percent }
\newlabel{MOP:SLOT-DEFINITION-WRITERS}{{A}{64}{}{section*.326}{}}
\@writefile{toc}{\contentsline {paragraph}{}{64}{section*.326}\protected@file@percent }
\newlabel{MOP:SLOT-MAKUNBOUND-USING-CLASS}{{A}{64}{}{section*.327}{}}
\@writefile{toc}{\contentsline {paragraph}{}{64}{section*.327}\protected@file@percent }
\newlabel{MOP:SLOT-VALUE-USING-CLASS}{{A}{64}{}{section*.328}{}}
\@writefile{toc}{\contentsline {paragraph}{}{64}{section*.328}\protected@file@percent }
\newlabel{MOP:SPECIALIZER}{{A}{64}{}{section*.329}{}}
\@writefile{toc}{\contentsline {paragraph}{}{64}{section*.329}\protected@file@percent }
\newlabel{MOP:SPECIALIZER-DIRECT-GENERIC-FUNCTIONS}{{A}{64}{}{section*.330}{}}
\@writefile{toc}{\contentsline {paragraph}{}{64}{section*.330}\protected@file@percent }
\newlabel{MOP:SPECIALIZER-DIRECT-METHODS}{{A}{64}{}{section*.331}{}}
\@writefile{toc}{\contentsline {paragraph}{}{64}{section*.331}\protected@file@percent }
\newlabel{MOP:STANDARD-ACCESSOR-METHOD}{{A}{65}{}{section*.332}{}}
\@writefile{toc}{\contentsline {paragraph}{}{65}{section*.332}\protected@file@percent }
\newlabel{MOP:STANDARD-DIRECT-SLOT-DEFINITION}{{A}{65}{}{section*.333}{}}
\@writefile{toc}{\contentsline {paragraph}{}{65}{section*.333}\protected@file@percent }
\newlabel{MOP:STANDARD-EFFECTIVE-SLOT-DEFINITION}{{A}{65}{}{section*.334}{}}
\@writefile{toc}{\contentsline {paragraph}{}{65}{section*.334}\protected@file@percent }
\newlabel{SYSTEM:STANDARD-INSTANCE-ACCESS}{{A}{65}{}{section*.335}{}}
\@writefile{toc}{\contentsline {paragraph}{}{65}{section*.335}\protected@file@percent }
\newlabel{COMMON-LISP:STANDARD-METHOD}{{A}{65}{}{section*.336}{}}
\@writefile{toc}{\contentsline {paragraph}{}{65}{section*.336}\protected@file@percent }
\newlabel{MOP:STANDARD-READER-METHOD}{{A}{65}{}{section*.337}{}}
\@writefile{toc}{\contentsline {paragraph}{}{65}{section*.337}\protected@file@percent }
\newlabel{MOP:STANDARD-SLOT-DEFINITION}{{A}{65}{}{section*.338}{}}
\@writefile{toc}{\contentsline {paragraph}{}{65}{section*.338}\protected@file@percent }
\newlabel{MOP:STANDARD-WRITER-METHOD}{{A}{65}{}{section*.339}{}}
\@writefile{toc}{\contentsline {paragraph}{}{65}{section*.339}\protected@file@percent }
\newlabel{MOP:UPDATE-DEPENDENT}{{A}{65}{}{section*.340}{}}
\@writefile{toc}{\contentsline {paragraph}{}{65}{section*.340}\protected@file@percent }
\newlabel{MOP:VALIDATE-SUPERCLASS}{{A}{65}{}{section*.341}{}}
\@writefile{toc}{\contentsline {paragraph}{}{65}{section*.341}\protected@file@percent }
\newlabel{MOP:WRITER-METHOD-CLASS}{{A}{65}{}{section*.342}{}}
\@writefile{toc}{\contentsline {paragraph}{}{65}{section*.342}\protected@file@percent }
\@setckpt{mop}{
\setcounter{page}{66}
\setcounter{equation}{0}
\setcounter{enumi}{6}
\setcounter{enumii}{0}
\setcounter{enumiii}{0}
\setcounter{enumiv}{0}
\setcounter{footnote}{0}
\setcounter{mpfootnote}{0}
\setcounter{part}{0}
\setcounter{chapter}{1}
\setcounter{section}{0}
\setcounter{subsection}{0}
\setcounter{subsubsection}{0}
\setcounter{paragraph}{0}
\setcounter{subparagraph}{0}
\setcounter{figure}{0}
\setcounter{table}{0}
\setcounter{section@level}{4}
\setcounter{Item}{6}
\setcounter{Hfootnote}{30}
\setcounter{bookmark@seq@number}{68}
\setcounter{lstnumber}{38}
\setcounter{cp@cntr}{0}
\setcounter{lstlisting}{0}
}
