\relax 
\providecommand\hyper@newdestlabel[2]{}
\newlabel{THREADS:*THREADING-MODEL*}{{3.4.2}{30}{}{section*.97}{}}
\@writefile{toc}{\contentsline {paragraph}{}{30}{section*.97}\protected@file@percent }
\newlabel{THREADS:CURRENT-THREAD}{{3.4.2}{30}{}{section*.98}{}}
\@writefile{toc}{\contentsline {paragraph}{}{30}{section*.98}\protected@file@percent }
\newlabel{THREADS:DESTROY-THREAD}{{3.4.2}{30}{}{section*.99}{}}
\@writefile{toc}{\contentsline {paragraph}{}{30}{section*.99}\protected@file@percent }
\newlabel{THREADS:GET-JAVA-THREAD}{{3.4.2}{30}{}{section*.100}{}}
\@writefile{toc}{\contentsline {paragraph}{}{30}{section*.100}\protected@file@percent }
\newlabel{THREADS:GET-MUTEX}{{3.4.2}{30}{}{section*.101}{}}
\@writefile{toc}{\contentsline {paragraph}{}{30}{section*.101}\protected@file@percent }
\newlabel{THREADS:INTERRUPT-THREAD}{{3.4.2}{30}{}{section*.102}{}}
\@writefile{toc}{\contentsline {paragraph}{}{30}{section*.102}\protected@file@percent }
\newlabel{THREADS:MAILBOX-EMPTY-P}{{3.4.2}{30}{}{section*.103}{}}
\@writefile{toc}{\contentsline {paragraph}{}{30}{section*.103}\protected@file@percent }
\newlabel{THREADS:MAILBOX-PEEK}{{3.4.2}{30}{}{section*.104}{}}
\@writefile{toc}{\contentsline {paragraph}{}{30}{section*.104}\protected@file@percent }
\newlabel{THREADS:MAILBOX-READ}{{3.4.2}{30}{}{section*.105}{}}
\@writefile{toc}{\contentsline {paragraph}{}{30}{section*.105}\protected@file@percent }
\newlabel{THREADS:MAILBOX-SEND}{{3.4.2}{30}{}{section*.106}{}}
\@writefile{toc}{\contentsline {paragraph}{}{30}{section*.106}\protected@file@percent }
\newlabel{THREADS:MAKE-MAILBOX}{{3.4.2}{30}{}{section*.107}{}}
\@writefile{toc}{\contentsline {paragraph}{}{30}{section*.107}\protected@file@percent }
\newlabel{THREADS:MAKE-MUTEX}{{3.4.2}{30}{}{section*.108}{}}
\@writefile{toc}{\contentsline {paragraph}{}{30}{section*.108}\protected@file@percent }
\newlabel{THREADS:MAKE-THREAD}{{3.4.2}{30}{}{section*.109}{}}
\@writefile{toc}{\contentsline {paragraph}{}{30}{section*.109}\protected@file@percent }
\newlabel{THREADS:MAKE-THREAD-LOCK}{{3.4.2}{31}{}{section*.110}{}}
\@writefile{toc}{\contentsline {paragraph}{}{31}{section*.110}\protected@file@percent }
\newlabel{THREADS:MAPCAR-THREADS}{{3.4.2}{31}{}{section*.111}{}}
\@writefile{toc}{\contentsline {paragraph}{}{31}{section*.111}\protected@file@percent }
\newlabel{THREADS:OBJECT-NOTIFY}{{3.4.2}{31}{}{section*.112}{}}
\@writefile{toc}{\contentsline {paragraph}{}{31}{section*.112}\protected@file@percent }
\newlabel{THREADS:OBJECT-NOTIFY-ALL}{{3.4.2}{31}{}{section*.113}{}}
\@writefile{toc}{\contentsline {paragraph}{}{31}{section*.113}\protected@file@percent }
\newlabel{THREADS:OBJECT-WAIT}{{3.4.2}{31}{}{section*.114}{}}
\@writefile{toc}{\contentsline {paragraph}{}{31}{section*.114}\protected@file@percent }
\newlabel{THREADS:RELEASE-MUTEX}{{3.4.2}{31}{}{section*.115}{}}
\@writefile{toc}{\contentsline {paragraph}{}{31}{section*.115}\protected@file@percent }
\newlabel{THREADS:SYNCHRONIZED-ON}{{3.4.2}{31}{}{section*.116}{}}
\@writefile{toc}{\contentsline {paragraph}{}{31}{section*.116}\protected@file@percent }
\newlabel{THREADS:THREAD}{{3.4.2}{31}{}{section*.117}{}}
\@writefile{toc}{\contentsline {paragraph}{}{31}{section*.117}\protected@file@percent }
\newlabel{THREADS:THREAD-ALIVE-P}{{3.4.2}{31}{}{section*.118}{}}
\@writefile{toc}{\contentsline {paragraph}{}{31}{section*.118}\protected@file@percent }
\newlabel{THREADS:THREAD-FUNCTION-WRAPPER}{{3.4.2}{31}{}{section*.119}{}}
\@writefile{toc}{\contentsline {paragraph}{}{31}{section*.119}\protected@file@percent }
\newlabel{THREADS:THREAD-JOIN}{{3.4.2}{31}{}{section*.120}{}}
\@writefile{toc}{\contentsline {paragraph}{}{31}{section*.120}\protected@file@percent }
\newlabel{THREADS:THREAD-NAME}{{3.4.2}{31}{}{section*.121}{}}
\@writefile{toc}{\contentsline {paragraph}{}{31}{section*.121}\protected@file@percent }
\newlabel{THREADS:THREADP}{{3.4.2}{31}{}{section*.122}{}}
\@writefile{toc}{\contentsline {paragraph}{}{31}{section*.122}\protected@file@percent }
\newlabel{THREADS:WITH-MUTEX}{{3.4.2}{32}{}{section*.123}{}}
\@writefile{toc}{\contentsline {paragraph}{}{32}{section*.123}\protected@file@percent }
\newlabel{THREADS:WITH-THREAD-LOCK}{{3.4.2}{32}{}{section*.124}{}}
\@writefile{toc}{\contentsline {paragraph}{}{32}{section*.124}\protected@file@percent }
\newlabel{THREADS:YIELD}{{3.4.2}{32}{}{section*.125}{}}
\@writefile{toc}{\contentsline {paragraph}{}{32}{section*.125}\protected@file@percent }
\@setckpt{threads}{
\setcounter{page}{33}
\setcounter{equation}{0}
\setcounter{enumi}{0}
\setcounter{enumii}{0}
\setcounter{enumiii}{0}
\setcounter{enumiv}{0}
\setcounter{footnote}{3}
\setcounter{mpfootnote}{0}
\setcounter{part}{0}
\setcounter{chapter}{3}
\setcounter{section}{4}
\setcounter{subsection}{2}
\setcounter{subsubsection}{0}
\setcounter{paragraph}{0}
\setcounter{subparagraph}{0}
\setcounter{figure}{0}
\setcounter{table}{0}
\setcounter{section@level}{4}
\setcounter{Item}{0}
\setcounter{Hfootnote}{15}
\setcounter{bookmark@seq@number}{35}
\setcounter{lstnumber}{2}
\setcounter{cp@cntr}{0}
\setcounter{lstlisting}{0}
}
